Preparing data
…
train %>% 
  pull(target) %>%
  as.factor() %>%
  table %>% as_tibble() 

## # A tibble: 18,370 x 2
##    .                     n
##    <chr>             <int>
##  1 0                  6325
##  2 0.693147180559945    18
##  3 5.14749447681345      1
##  4 6.14846829591765      1
##  5 6.42486902390539      1
##  6 6.68586094706836      1
##  7 6.71295620067707      1
##  8 7.10002716662926      1
##  9 7.21376830811864      1
## 10 7.35436233042148      1
## #  with 18,360 more rows
…
train %>% 
  mutate(na_rsum = rowSums(is.na(.))) %>%
  filter(na_rsum == 0)

## # A tibble: 35 x 122
##    BCT_CODBUR CTR_MATFIS CTR_CATEGO_X FJU_CODFJU CTR_CESSAT ACT_CODACT
##         <dbl>      <dbl> <chr>             <dbl>      <dbl>      <dbl>
##  1         37       9971 M                    21          0       5804
##  2        500      10059 M                    21          0       4753
##  3        500      11785 M                    21          0       5702
##  4        196       8346 M                    22          0       5703
##  5        700      14137 M                    21          0       2702
##  6        500      11684 M                    21          0       5203
##  7        291      12111 M                    22          0       5606
##  8        500       2189 M                    21          0       5703
##  9        700       3949 M                    22          0       2702
## 10        197       2131 M                    21          0       5506
## #  with 25 more rows, and 116 more variables: CTR_OBLDIR <dbl>,
## #   CTR_OBLACP <dbl>, CTR_OBLRES <dbl>, CTR_OBLFOP <dbl>,
## #   CTR_OBLTFP <dbl>, CTR_OBLDCO <dbl>, CTR_OBLTVA <dbl>,
## #   CTR_OFODEC <dbl>, CTR_OFODEP <dbl>, CTR_OFODET <dbl>,
## #   CTR_OBLAUT <dbl>, CTR_OBLASS <dbl>, CTR_ODTIMB <dbl>,
## #   CTR_OBLTCL <dbl>, CTR_OBLTHO <dbl>, CTR_OBLDLI <dbl>,
## #   CTR_OBLTVI <dbl>, CTR_RATISS <dbl>, EXE_EXERCI <dbl>,
## #   TVA_CHAFF6 <dbl>, TVA_CHAFF7 <dbl>, TVA_CHAF10 <dbl>,
## #   TVA_CHAF12 <dbl>, TVA_CAF125 <dbl>, TVA_CHAF15 <dbl>,
…
## [1] 0.2669468

We have almost the same rate of missing values, that is 27% for the train and the test set. this means that we need to pay attention to the imputation strategy later on.

# this helps viewthe structure of the regression later on.

train %>%
  recipe(target ~.) %>%
  summary() 

## # A tibble: 121 x 4
##    variable     type    role      source  
##    <chr>        <chr>   <chr>     <chr>   
##  1 BCT_CODBUR   numeric predictor original
##  2 CTR_MATFIS   numeric predictor original
##  3 CTR_CATEGO_X nominal predictor original
##  4 FJU_CODFJU   numeric predictor original
##  5 CTR_CESSAT   numeric predictor original
##  6 ACT_CODACT   numeric predictor original
##  7 CTR_OBLDIR   numeric predictor original
##  8 CTR_OBLACP   numeric predictor original
##  9 CTR_OBLRES   numeric predictor original
## 10 CTR_OBLFOP   numeric predictor original
## #  with 111 more rows
…
